{
    "org_id": "ctgrdf",
    "domain": "internetofthings.ibmcloud.com",
    "device_type": "LabPythonDevice",
    "device_id": "IoTDevice1",
    "dev_auth_token": "430FEYckMPx5Ovw7mr",
    "qos": 2,
    "disconnect_after": 20,
    "throttleInterval": 1000
}